{
  "ports_to_monitor": [22, 80, 443, 8080],
  "report_dir": "/var/monit/reports/",
  "log_dir": "/var/log/monit/",
  "ram_warn_threshold": 80,
  "disk_warn_threshold": 80,
  "cpu_warn_threshold": 80
}
